{
  "connection": "default",
  "collectionName": "traplog",
  "info": {
    "name": "traplog",
    "description": ""
  },
  "options": {
    "timestamps": true
  },
  "attributes": {
    "type": {
      "default": "",
      "type": "enumeration",
      "enum": [
        "image",
        "weevil_cnt",
        "trap_service"
      ]
    },
    "weevil_cnt": {
      "default": "",
      "type": "string"
    },
    "image_url": {
      "default": "",
      "type": "string"
    },
    "trap": {
      "model": "trap",
      "via": "traplogs"
    },
    "qr_value": {
      "default": "",
      "type": "string"
    }
  }
}