{
  "connection": "default",
  "collectionName": "trap",
  "info": {
    "name": "trap",
    "description": ""
  },
  "options": {
    "timestamps": true
  },
  "attributes": {
    "uuid": {
      "default": "",
      "type": "string"
    },
    "qr_value": {
      "default": "",
      "type": "string",
      "unique": true
    },
    "traplogs": {
      "collection": "traplog",
      "via": "trap"
    },
    "lat": {
      "default": "",
      "type": "string"
    },
    "lng": {
      "default": "",
      "type": "string"
    },
    "supervisor_id": {
      "default": "",
      "type": "string"
    }
  }
}