{
  "connection": "default",
  "collectionName": "",
  "info": {
    "name": "log",
    "description": ""
  },
  "options": {
    "timestamps": true
  },
  "attributes": {
    "activity": {
      "default": "",
      "type": "string",
      "required": true
    },
    "time": {
      "default": "",
      "type": "string",
      "required": true
    },
    "devMAC": {
      "default": "",
      "type": "string"
    },
    "devQR": {
      "default": "",
      "type": "string"
    },
    "details": {
      "default": "",
      "type": "string"
    }
  }
}