{
  "routes": [
    {
      "method": "GET",
      "path": "/bleusers",
      "handler": "Bleuser.find",
      "config": {
        "policies": []
      }
    },
    {
      "method": "GET",
      "path": "/bleusers/count",
      "handler": "Bleuser.count",
      "config": {
        "policies": []
      }
    },
    {
      "method": "GET",
      "path": "/bleusers/:_id",
      "handler": "Bleuser.findOne",
      "config": {
        "policies": []
      }
    },
    {
      "method": "POST",
      "path": "/bleusers",
      "handler": "Bleuser.create",
      "config": {
        "policies": []
      }
    },
    {
      "method": "POST",
      "path": "/ble/test/login",
      "handler": "Bleuser.nakheelble_login",
      "config": {
        "policies": []
      }
    },
    {
      "method": "PUT",
      "path": "/bleusers/:_id",
      "handler": "Bleuser.update",
      "config": {
        "policies": []
      }
    },
    {
      "method": "DELETE",
      "path": "/bleusers/:_id",
      "handler": "Bleuser.destroy",
      "config": {
        "policies": []
      }
    }
  ]
}