{
  "routes": [
    {
      "method": "GET",
      "path": "/palmtypes",
      "handler": "Palmtype.find",
      "config": {
        "policies": []
      }
    },
    {
      "method": "GET",
      "path": "/palmtypes/count",
      "handler": "Palmtype.count",
      "config": {
        "policies": []
      }
    },
    {
      "method": "GET",
      "path": "/palmtypes/:_id",
      "handler": "Palmtype.findOne",
      "config": {
        "policies": []
      }
    },
    {
      "method": "POST",
      "path": "/palmtypes",
      "handler": "Palmtype.create",
      "config": {
        "policies": []
      }
    },
    {
      "method": "POST",
      "path": "/Dev/palms/types",
      "handler": "Palmtype.nakheel_palm_types",
      "config": {
        "policies": []
      }
    },
    {
      "method": "POST",
      "path": "/Integration_Dev/basic/list-palmtypes",
      "handler": "Palmtype.nakheel_palm_types",
      "config": {
        "policies": []
      }
    },
    {
      "method": "GET",
      "path": "/ble/test/farm-settings/palm-type-list",
      "handler": "Palmtype.nakheelble_FarmSettings_PalmTypeList",
      "config": {
        "policies": []
      }
    },
    {
      "method": "PUT",
      "path": "/palmtypes/:_id",
      "handler": "Palmtype.update",
      "config": {
        "policies": []
      }
    },
    {
      "method": "DELETE",
      "path": "/palmtypes/:_id",
      "handler": "Palmtype.destroy",
      "config": {
        "policies": []
      }
    }
  ]
}