{
  "connection": "default",
  "collectionName": "",
  "info": {
    "name": "uplink",
    "description": ""
  },
  "options": {
    "timestamps": true
  },
  "attributes": {
    "app_id": {
      "default": "",
      "type": "string"
    },
    "counter": {
      "default": "",
      "type": "integer"
    },
    "dev_id": {
      "default": "",
      "type": "string"
    },
    "hardware_serial": {
      "default": "",
      "type": "string"
    },
    "payload_raw": {
      "default": "",
      "type": "string"
    },
    "port": {
      "default": "",
      "type": "integer"
    },
    "time": {
      "default": "",
      "type": "string",
      "unique": true
    }
  }
}