{
  "routes": [
    {
      "method": "GET",
      "path": "/lorausers",
      "handler": "Lorauser.find",
      "config": {
        "policies": []
      }
    },
    {
      "method": "GET",
      "path": "/lorausers/count",
      "handler": "Lorauser.count",
      "config": {
        "policies": []
      }
    },
    {
      "method": "GET",
      "path": "/lorausers/:_id",
      "handler": "Lorauser.findOne",
      "config": {
        "policies": []
      }
    },
    {
      "method": "POST",
      "path": "/lorausers",
      "handler": "Lorauser.create",
      "config": {
        "policies": []
      }
    },
    {
      "method": "POST",
      "path": "/Integration_Dev/login",
      "handler": "Lorauser.nakheel_int_login",
      "config": {
        "policies": []
      }
    },
    {
      "method": "PUT",
      "path": "/lorausers/:_id",
      "handler": "Lorauser.update",
      "config": {
        "policies": []
      }
    },
    {
      "method": "DELETE",
      "path": "/lorausers/:_id",
      "handler": "Lorauser.destroy",
      "config": {
        "policies": []
      }
    }
  ]
}