{
  "connection": "default",
  "collectionName": "palm",
  "info": {
    "name": "palm",
    "description": ""
  },
  "options": {
    "timestamps": true
  },
  "attributes": {
    "gender": {
      "default": "",
      "type": "string"
    },
    "health_status": {
      "default": "",
      "type": "string"
    },
    "lat": {
      "default": "",
      "type": "string"
    },
    "long": {
      "default": "",
      "type": "string"
    },
    "palm_type": {
      "default": "",
      "type": "string"
    },
    "uuid": {
      "default": "",
      "type": "string",
      "unique": true,
      "required": true
    },
    "insertion_time": {
      "default": "",
      "type": "string"
    },
    "deviceuid": {
      "default": "",
      "type": "string"
    },
    "qr_value": {
      "default": "",
      "type": "string",
      "unique": true
    },
    "age": {
      "default": "",
      "type": "string"
    },
    "farm_code": {
      "default": "",
      "type": "string"
    },
    "supervisor_id": {
      "default": "",
      "type": "string"
    },
    "region_id": {
      "default": "",
      "type": "string"
    },
    "consecutive_clean_reports": {
      "default": 0,
      "type": "integer"
    }
  }
}