{
  "connection": "default",
  "collectionName": "NakheelControl",
  "info": {
    "name": "nakheelcontrol",
    "description": ""
  },
  "options": {
    "timestamps": true
  },
  "attributes": {
    "devEUI": {
      "default": "",
      "type": "string",
      "required": true
    },
    "time": {
      "default": "",
      "type": "string",
      "required": true,
      "unique": true,
      "index": true
    },
    "startHour": {
      "default": "",
      "type": "string"
    },
    "numberOfHours": {
      "default": "",
      "type": "string"
    },
    "daysOff": {
      "default": "",
      "type": "string"
    },
    "runMode": {
      "default": "",
      "type": "string"
    }
  }
}