{
  "connection": "default",
  "collectionName": "device",
  "info": {
    "name": "device",
    "description": ""
  },
  "options": {
    "timestamps": true
  },
  "attributes": {
    "qr_value": {
      "default": "",
      "type": "string",
      "required": true
    },
    "device_data": {
      "default": "",
      "type": "string"
    },
    "deviceuid": {
      "default": "",
      "type": "string"
    },
    "insertion_time": {
      "default": "",
      "type": "string"
    },
    "lastReadingTime": {
      "default": "",
      "type": "string"
    },
    "latitude": {
      "default": "",
      "type": "string"
    },
    "longitude": {
      "default": "",
      "type": "string"
    },
    "MAC": {
      "default": "",
      "type": "string"
    },
    "state": {
      "default": "",
      "type": "string"
    },
    "supervisor_id": {
      "default": "",
      "type": "string"
    },
    "lastReadingDate": {
      "default": "",
      "type": "string"
    },
    "lastInstallDate": {
      "default": "",
      "type": "string"
    },
    "numberOfDays": {
      "default": "",
      "type": "string"
    },
    "numberOfHours": {
      "default": "",
      "type": "string"
    },
    "peakHour": {
      "default": "",
      "type": "string"
    }
  }
}